PhenoData
…
Joining with `by = join_by(GID)`

[1] 1397

dbdata %>% 
  distinct(GID,germplasmName,FullSampleName) %>% 
  semi_join(tibble(GID=rownames_snps)) %>% 
  filter(grepl("C1",GID,ignore.case = F)) # 55 C1 clones currently match

Joining with `by = join_by(GID)`

# A tibble: 55 × 3
   GID                            germplasmName FullSampleName                
   <chr>                          <chr>         <chr>                         
 1 F116C1bP006:CA7RRANXX:3:499841 F116C1bP006   F116C1bP006:CA7RRANXX:3:499841
 2 F11C1bP001:CABV7ANXX:5:503891  F11C1bP001    F11C1bP001:CABV7ANXX:5:503891 
 3 F123C1bP002:CA7RRANXX:4:499895 F123C1bP002   F123C1bP002:CA7RRANXX:4:499895
 4 F123C1bP006:CA7RRANXX:4:499899 F123C1bP006   F123C1bP006:CA7RRANXX:4:499899
 5 F12C1bP018:CABV7ANXX:5:503932  F12C1bP018    F12C1bP018:CABV7ANXX:5:503932 
 6 F135C1bP001:CABJYANXX:5:505238 F135C1bP001   F135C1bP001:CABJYANXX:5:505238
 7 F136C1bP002:CABJYANXX:5:505240 F136C1bP002   F136C1bP002:CABJYANXX:5:505240
 8 F140C1bP001:CABJYANXX:5:505270 F140C1bP001   F140C1bP001:CABJYANXX:5:505270
 9 F152C1bP010:CA7RRANXX:5:499961 F152C1bP010   F152C1bP010:CA7RRANXX:5:499961
10 F152C1bP014:CA7RRANXX:5:499965 F152C1bP014   F152C1bP014:CA7RRANXX:5:499965
# ℹ 45 more rows

dbdata %>% 
  distinct(GID,germplasmName,FullSampleName) %>% 
  semi_join(tibble(GID=rownames_snps)) %>% 
  filter(grepl("C2",GID,ignore.case = F)) # 57 C2 clones either

Joining with `by = join_by(GID)`

# A tibble: 57 × 3
   GID            germplasmName  FullSampleName
   <chr>          <chr>          <chr>         
 1 NR17F15C2aP011 NR17F15C2aP011 NR17F15C2aP011
 2 NR17F1C2aP002  NR17F1C2aP002  NR17F1C2aP002 
 3 NR17F1C2aP003  NR17F1C2aP003  NR17F1C2aP003 
 4 NR17F1C2aP005  NR17F1C2aP005  NR17F1C2aP005 
 5 NR17F1C2aP006  NR17F1C2aP006  NR17F1C2aP006 
 6 NR17F1C2aP007  NR17F1C2aP007  NR17F1C2aP007 
 7 NR17F1C2aP008  NR17F1C2aP008  NR17F1C2aP008 
 8 NR17F1C2aP009  NR17F1C2aP009  NR17F1C2aP009 
 9 NR17F1C2aP010  NR17F1C2aP010  NR17F1C2aP010 
10 NR17F1C2aP011  NR17F1C2aP011  NR17F1C2aP011 
# ℹ 47 more rows
…
Joining with `by = join_by(GID)`

# A tibble: 0 × 3
# ℹ 3 variables: GID <chr>, germplasmName <chr>, FullSampleName <chr>

dbdata %>% 
  distinct(GID,germplasmName,FullSampleName) %>% 
  anti_join(tibble(GID=rownames_snps)) %>% 
  filter(grepl("C1|C2|C3",GID,ignore.case = T)) # definitely there are both C1, C2, and C3 phenotypes

Joining with `by = join_by(GID)`

# A tibble: 3,226 × 3
   GID             germplasmName   FullSampleName
   <chr>           <chr>           <chr>         
 1 NR16F100C1bP001 NR16F100C1bP001 <NA>          
 2 NR16F100C1bP002 NR16F100C1bP002 <NA>          
 3 NR16F104C1bP001 NR16F104C1bP001 <NA>          
 4 NR16F105C1bP001 NR16F105C1bP001 <NA>          
 5 NR16F105C1bP002 NR16F105C1bP002 <NA>          
 6 NR16F106C1bP001 NR16F106C1bP001 <NA>          
 7 NR16F107C1bP002 NR16F107C1bP002 <NA>          
 8 NR16F107C1bP004 NR16F107C1bP004 <NA>          
 9 NR16F108C1bP001 NR16F108C1bP001 <NA>          
10 NR16F109C1bP001 NR16F109C1bP001 <NA>          
# ℹ 3,216 more rows
…
Joining with `by = join_by(FullSampleName)`
Joining with `by = join_by(FullSampleName)`
Joining with `by = join_by(germplasmName)`
Joining with `by = join_by(FullSampleName)`
Joining with `by = join_by(germplasmName)`
Joining with `by = join_by(FullSampleName)`
Joining with `by = join_by(germplasmName)`
Joining with `by = join_by(FullSampleName)`
Joining with `by = join_by(germplasmName)`

germ2snps %>% 
  count(germplasmName) %>% arrange(desc(n))

# A tibble: 4,067 × 2
   germplasmName       n
   <chr>           <int>
 1 NR16C1bF185P001     4
 2 NR16F185C1bP001     4
 3 NR16C1bF170P019     3
 4 NR16C1bF170P020     3
 5 NR16C1bF180P002     3
 6 NR16F180C1bP002     3
 7 NR16F182C1bP001     3
 8 NR16C1bF171P002     2
 9 NR16C1bF179P001     2
10 NR16C1bF179P002     2
# ℹ 4,057 more rows

germ2snps %>% 
  count(FullSampleName) %>% arrange(desc(n))

# A tibble: 2,193 × 2
   FullSampleName                     n
   <chr>                          <int>
 1 <NA>                            1747
 2 F116C1bP006:CA7RRANXX:3:499841     3
 3 F123C1bP002:CA7RRANXX:4:499895     3
 4 F123C1bP006:CA7RRANXX:4:499899     3
 5 F12C1bP018:CABV7ANXX:5:503932      3
 6 F135C1bP001:CABJYANXX:5:505238     3
 7 F136C1bP002:CABJYANXX:5:505240     3
 8 F140C1bP001:CABJYANXX:5:505270     3
 9 F152C1bP010:CA7RRANXX:5:499961     3
10 F152C1bP014:CA7RRANXX:5:499965     3
# ℹ 2,183 more rows
…
